\relax 
\catcode `"\active 
\providecommand\hyper@newdestlabel[2]{}
\providecommand\HyperFirstAtBeginDocument{\AtBeginDocument}
\HyperFirstAtBeginDocument{\ifx\hyper@anchor\@undefined
\global\let\oldnewlabel\newlabel
\gdef\newlabel#1#2{\newlabelxx{#1}#2}
\gdef\newlabelxx#1#2#3#4#5#6{\oldnewlabel{#1}{{#2}{#3}}}
\AtEndDocument{\ifx\hyper@anchor\@undefined
\let\newlabel\oldnewlabel
\fi}
\fi}
\global\let\hyper@last\relax 
\gdef\HyperFirstAtBeginDocument#1{#1}
\providecommand*\HyPL@Entry[1]{}
\abx@aux@refcontext{none/global//global/global}
\HyPL@Entry{0<</S/D /St 2>>}
\@writefile{toc}{\xpginauxfiletrue }
\@writefile{lof}{\xpginauxfiletrue }
\@writefile{lot}{\xpginauxfiletrue }
\@writefile{toc}{\selectlanguage *[babelshorthands=true]{russian}}
\@input{paper07.aux}
\abx@aux@cite{0}{желтов2007понятие}
\abx@aux@segm{0}{0}{желтов2007понятие}
\abx@aux@cite{0}{ford2022building}
\abx@aux@segm{0}{0}{ford2022building}
\abx@aux@cite{0}{боргест2024системный}
\abx@aux@segm{0}{0}{боргест2024системный}
\abx@aux@cite{0}{мако1973теория}
\abx@aux@segm{0}{0}{мако1973теория}
\abx@aux@cite{0}{гост21838-1-2021}
\abx@aux@segm{0}{0}{гост21838-1-2021}
\abx@aux@cite{0}{поспелов1971принципы}
\abx@aux@segm{0}{0}{поспелов1971принципы}
\abx@aux@cite{0}{клыков1974ситуационное}
\abx@aux@segm{0}{0}{клыков1974ситуационное}
\abx@aux@cite{0}{антонов2022усовершенствование}
\abx@aux@segm{0}{0}{антонов2022усовершенствование}
\abx@aux@cite{0}{егоров2022методика}
\abx@aux@segm{0}{0}{егоров2022методика}
\gdef\totfig{1}\gdef\tottab{1}\gdef\totapp{0}\gdef\totbib{0}
\@writefile{toc}{\xpginauxfilefalse }
\@writefile{lof}{\xpginauxfilefalse }
\@writefile{lot}{\xpginauxfilefalse }
\newlabel{LastPage}{{}{18}{}{page.18}{}}
\xdef\lastpage@lastpage{18}
\xdef\lastpage@lastpageHy{18}
\abx@aux@number{9}{желтов2007понятие}{0}{none/global//global/global}{1}
\abx@aux@number{10}{ford2022building}{0}{none/global//global/global}{2}
\abx@aux@number{11}{боргест2024системный}{0}{none/global//global/global}{3}
\abx@aux@number{12}{мако1973теория}{0}{none/global//global/global}{4}
\abx@aux@number{13}{гост21838-1-2021}{0}{none/global//global/global}{5}
\abx@aux@number{14}{поспелов1971принципы}{0}{none/global//global/global}{6}
\abx@aux@number{15}{клыков1974ситуационное}{0}{none/global//global/global}{7}
\abx@aux@number{16}{антонов2022усовершенствование}{0}{none/global//global/global}{8}
\abx@aux@number{17}{егоров2022методика}{0}{none/global//global/global}{9}
\abx@aux@read@bbl@mdfivesum{24870B0EEA79E5AB43FB13ED22E3B8BA}
\abx@aux@defaultrefcontext{0}{желтов2007понятие}{none/global//global/global}
\abx@aux@defaultrefcontext{0}{ford2022building}{none/global//global/global}
\abx@aux@defaultrefcontext{0}{боргест2024системный}{none/global//global/global}
\abx@aux@defaultrefcontext{0}{мако1973теория}{none/global//global/global}
\abx@aux@defaultrefcontext{0}{гост21838-1-2021}{none/global//global/global}
\abx@aux@defaultrefcontext{0}{поспелов1971принципы}{none/global//global/global}
\abx@aux@defaultrefcontext{0}{клыков1974ситуационное}{none/global//global/global}
\abx@aux@defaultrefcontext{0}{антонов2022усовершенствование}{none/global//global/global}
\abx@aux@defaultrefcontext{0}{егоров2022методика}{none/global//global/global}
\gdef \@abspage@last{17}
